Bayesian Statistics 2023 - advanced MLM
…
Code

melsm %>% 
  data_grid(day01 = seq_range(day01, n = 20), .model= melsm) %>% 
  add_epred_draws(melsm.1 )

# A tibble: 160,000 × 14
# Groups:   day01, P_A.std, day, P_A.lag, N_A.lag, steps.pm, steps.pmd,
#   record_id, N_A.std, .row [20]
   day01 P_A.std   day P_A.lag N_A.lag steps.pm steps.pmd record_id N_A.std
   <dbl>   <dbl> <dbl>   <dbl>   <dbl>    <dbl>     <dbl>     <dbl>   <dbl>
 1     0  0.0141    41  0.0239  -0.418   0.0480 -0.000672        96  -0.351
 2     0  0.0141    41  0.0239  -0.418   0.0480 -0.000672        96  -0.351
 3     0  0.0141    41  0.0239  -0.418   0.0480 -0.000672        96  -0.351
 4     0  0.0141    41  0.0239  -0.418   0.0480 -0.000672        96  -0.351
 5     0  0.0141    41  0.0239  -0.418   0.0480 -0.000672        96  -0.351
 6     0  0.0141    41  0.0239  -0.418   0.0480 -0.000672        96  -0.351
 7     0  0.0141    41  0.0239  -0.418   0.0480 -0.000672        96  -0.351
 8     0  0.0141    41  0.0239  -0.418   0.0480 -0.000672        96  -0.351
 9     0  0.0141    41  0.0239  -0.418   0.0480 -0.000672        96  -0.351
10     0  0.0141    41  0.0239  -0.418   0.0480 -0.000672        96  -0.351
# ℹ 159,990 more rows
# ℹ 5 more variables: .row <int>, .chain <int>, .iteration <int>, .draw <int>,
#   .epred <dbl>

If we do not care about random effects, specify re_formula = NA

Code

fixed.slope<- melsm %>% 
  data_grid(day01 = seq_range(day01, n = 20)) %>% 
  add_epred_draws(melsm.1, re_formula = NA )
  fixed.slope

# A tibble: 160,000 × 6
# Groups:   day01, .row [20]
   day01  .row .chain .iteration .draw .epred
   <dbl> <int>  <int>      <int> <int>  <dbl>
 1     0     1     NA         NA     1 0.0235
 2     0     1     NA         NA     2 0.121 
 3     0     1     NA         NA     3 0.145 
 4     0     1     NA         NA     4 0.0997
 5     0     1     NA         NA     5 0.0995
 6     0     1     NA         NA     6 0.0262
 7     0     1     NA         NA     7 0.0445
 8     0     1     NA         NA     8 0.0748
 9     0     1     NA         NA     9 0.0618
10     0     1     NA         NA    10 0.0356
# ℹ 159,990 more rows

If we want random effects we need to specify the variable to get ALL levels.

melsm %>% 
  data_grid(day01 = seq_range(day01, n = 20), record_id) 

# A tibble: 3,860 × 2
   day01 record_id
   <dbl>     <int>
 1     0         1
 2     0         2
 3     0         3
 4     0         4
 5     0         5
 6     0         6
 7     0         7
 8     0         8
 9     0         9
10     0        10
# ℹ 3,850 more rows

193 people * 20 = 3860

Then we need to state re_forumla = NULL (which is the default)

Code

melsm %>% 
  data_grid(day01 = seq_range(day01, n = 20), record_id) %>% 
  add_epred_draws(melsm.1, re_formula = NULL )

# A tibble: 30,880,000 × 7
# Groups:   day01, record_id, .row [3,860]
   day01 record_id  .row .chain .iteration .draw   .epred
   <dbl>     <int> <int>  <int>      <int> <int>    <dbl>
 1     0         1     1     NA         NA     1  0.105  
 2     0         1     1     NA         NA     2  0.241  
 3     0         1     1     NA         NA     3  0.289  
 4     0         1     1     NA         NA     4 -0.00407
 5     0         1     1     NA         NA     5 -0.0554 
 6     0         1     1     NA         NA     6  0.339  
 7     0         1     1     NA         NA     7  0.0825 
 8     0         1     1     NA         NA     8  0.171  
 9     0         1     1     NA         NA     9  0.302  
10     0         1     1     NA         NA    10  0.136  
# ℹ 30,879,990 more rows
…
5 * 3 = 15 rows

Code

 melsm %>% 
  data_grid(steps.pm = seq_range(steps.pm, n = 5), P_A.std = c(-1,0,1), day01 = .5, .model = melsm) %>% 
  add_epred_draws(melsm.1i, re_formula = NA) 

# A tibble: 120,000 × 14
# Groups:   steps.pm, P_A.std, day01, day, P_A.lag, N_A.lag, steps.pmd,
#   record_id, N_A.std, .row [15]
   steps.pm P_A.std day01   day P_A.lag N_A.lag steps.pmd record_id N_A.std
      <dbl>   <dbl> <dbl> <dbl>   <dbl>   <dbl>     <dbl>     <dbl>   <dbl>
 1    -1.41      -1   0.5    41  0.0239  -0.418 -0.000672        96  -0.351
 2    -1.41      -1   0.5    41  0.0239  -0.418 -0.000672        96  -0.351
 3    -1.41      -1   0.5    41  0.0239  -0.418 -0.000672        96  -0.351
 4    -1.41      -1   0.5    41  0.0239  -0.418 -0.000672        96  -0.351
 5    -1.41      -1   0.5    41  0.0239  -0.418 -0.000672        96  -0.351
 6    -1.41      -1   0.5    41  0.0239  -0.418 -0.000672        96  -0.351
 7    -1.41      -1   0.5    41  0.0239  -0.418 -0.000672        96  -0.351
 8    -1.41      -1   0.5    41  0.0239  -0.418 -0.000672        96  -0.351
 9    -1.41      -1   0.5    41  0.0239  -0.418 -0.000672        96  -0.351
10    -1.41      -1   0.5    41  0.0239  -0.418 -0.000672        96  -0.351
# ℹ 119,990 more rows
# ℹ 5 more variables: .row <int>, .chain <int>, .iteration <int>, .draw <int>,
#   .epred <dbl>
…
Don’t need to even attempt a random sample. All we need is a sample that is large and diverse enough + population data (e.g., from the census).

Estimating the proportion of heterosexual women who kept their maiden name after marriage.

https://www.monicaalexander.com/posts/2019-08-07-mrp/ https://bookdown.org/content/4857/models-with-memory.html#summary-bonus-post-stratification-in-an-example

mrp <-load("mrp.rds")
mrp

[1] "d"           "cell_counts"

d

# A tibble: 4,413 × 5
   kept_name state_name     age_group decade_married educ_group
       <dbl> <chr>          <chr>     <chr>          <chr>     
 1         0 ohio           50        1979           >BA       
 2         0 virginia       35        1999           >BA       
 3         1 new york       35        2009           >BA       
 4         0 rhode island   55        1999           >BA       
 5         0 illinois       35        2009           >BA       
 6         0 north carolina 25        2009           >BA       
 7         1 iowa           35        1999           >BA       
 8         1 texas          35        2009           >BA       
 9         0 south dakota   35        1999           >BA       
10         0 texas          35        2009           >BA       
# ℹ 4,403 more rows

cell_counts

# A tibble: 6,058 × 5
   state_name age_group decade_married educ_group     n
   <chr>      <chr>     <chr>          <chr>      <dbl>
 1 alabama    25        1999           <BA        19012
 2 alabama    25        2009           <BA        37488
 3 alabama    25        1999           >BA          959
 4 alabama    25        2009           >BA         5319
 5 alabama    25        1999           BA          2986
 6 alabama    25        2009           BA         14261
 7 alaska     25        1999           <BA         3320
 8 alaska     25        2009           <BA         7001
 9 alaska     25        1999           >BA          159
10 alaska     25        2009           >BA          435
# ℹ 6,048 more rows
…
Census data we will use to make predictions. We will make predictions for every combination of variable we are interested in (state, age, decade married, edu)

Code

age_prop <- 
  cell_counts %>% 
  group_by(age_group) %>% 
  mutate(prop = n / sum(n)) %>% 
  ungroup()

age_prop

# A tibble: 6,058 × 6
   state_name age_group decade_married educ_group     n      prop
   <chr>      <chr>     <chr>          <chr>      <dbl>     <dbl>
 1 alabama    25        1999           <BA        19012 0.00414  
 2 alabama    25        2009           <BA        37488 0.00816  
 3 alabama    25        1999           >BA          959 0.000209 
 4 alabama    25        2009           >BA         5319 0.00116  
 5 alabama    25        1999           BA          2986 0.000650 
 6 alabama    25        2009           BA         14261 0.00310  
 7 alaska     25        1999           <BA         3320 0.000723 
 8 alaska     25        2009           <BA         7001 0.00152  
 9 alaska     25        1999           >BA          159 0.0000346
10 alaska     25        2009           >BA          435 0.0000947
# ℹ 6,048 more rows

p <- mlm.mrp %>% 
  add_predicted_draws(newdata = age_prop %>% 
                        filter(age_group > 20, 
                               age_group < 80, 
                               decade_married > 1969),
                      allow_new_levels = T)
p

# A tibble: 24,232,000 × 11
# Groups:   state_name, age_group, decade_married, educ_group, n, prop, .row
#   [6,058]
   state_name age_group decade_married educ_group     n    prop  .row .chain
   <chr>      <chr>     <chr>          <chr>      <dbl>   <dbl> <int>  <int>
 1 alabama    25        1999           <BA        19012 0.00414     1     NA
 2 alabama    25        1999           <BA        19012 0.00414     1     NA
 3 alabama    25        1999           <BA        19012 0.00414     1     NA
 4 alabama    25        1999           <BA        19012 0.00414     1     NA
 5 alabama    25        1999           <BA        19012 0.00414     1     NA
 6 alabama    25        1999           <BA        19012 0.00414     1     NA
 7 alabama    25        1999           <BA        19012 0.00414     1     NA
 8 alabama    25        1999           <BA        19012 0.00414     1     NA
 9 alabama    25        1999           <BA        19012 0.00414     1     NA
10 alabama    25        1999           <BA        19012 0.00414     1     NA
# ℹ 24,231,990 more rows
# ℹ 3 more variables: .iteration <int>, .draw <int>, .prediction <int>
…
library(tidybayes)
get_variables(med.1)

 [1] "b_Y_Intercept" "b_M_Intercept" "b_Y_X"         "b_Y_M"        
 [5] "b_M_X"         "sigma_Y"       "sigma_M"       "lprior"       
 [9] "lp__"          "accept_stat__" "treedepth__"   "stepsize__"   
[13] "divergent__"   "n_leapfrog__"  "energy__"     

Code

med.1 %>% 
  spread_draws(b_Y_M, b_M_X,b_Y_X) 

# A tibble: 4,000 × 6
   .chain .iteration .draw b_Y_M b_M_X b_Y_X
    <int>      <int> <int> <dbl> <dbl> <dbl>
 1      1          1     1 0.723 0.321 0.361
 2      1          2     2 0.823 0.195 0.254
 3      1          3     3 0.697 0.314 0.312
 4      1          4     4 0.787 0.133 0.242
 5      1          5     5 0.675 0.362 0.281
 6      1          6     6 0.847 0.247 0.223
 7      1          7     7 0.304 0.359 0.186
 8      1          8     8 0.695 0.318 0.248
 9      1          9     9 0.706 0.165 0.420
10      1         10    10 0.736 0.298 0.156
# ℹ 3,990 more rows
…
melsm.2 %>% 
  spread_draws(b_day01) %>% 
  median_qi()

# A tibble: 1 × 6
  b_day01 .lower  .upper .width .point .interval
    <dbl>  <dbl>   <dbl>  <dbl> <chr>  <chr>    
1  -0.157 -0.262 -0.0522   0.95 median qi       

Code

melsm.2 %>% 
spread_draws(b_sigma_Intercept,r_record_id__sigma[ID, term]) 

# A tibble: 1,544,000 × 7
# Groups:   ID, term [193]
   .chain .iteration .draw b_sigma_Intercept    ID term      r_record_id__sigma
    <int>      <int> <int>             <dbl> <int> <chr>                  <dbl>
 1      1          1     1            -0.713     1 Intercept             0.235 
 2      1          1     1            -0.713     2 Intercept            -1.16  
 3      1          1     1            -0.713     3 Intercept             0.179 
 4      1          1     1            -0.713     4 Intercept             0.447 
 5      1          1     1            -0.713     5 Intercept            -0.987 
 6      1          1     1            -0.713     6 Intercept             0.295 
 7      1          1     1            -0.713     7 Intercept             0.0524
 8      1          1     1            -0.713     8 Intercept            -0.994 
 9      1          1     1            -0.713     9 Intercept            -0.569 
10      1          1     1            -0.713    10 Intercept            -0.342 
# ℹ 1,543,990 more rows
…
# A tibble: 1 × 6
  sigma_day1 .lower .upper .width .point .interval
       <dbl>  <dbl>  <dbl>  <dbl> <chr>  <chr>    
1      0.426  0.381  0.474   0.95 median qi       

Code

 melsm %>% 
  data_grid(day01 = seq_range(day01, n = 20), .model = melsm) %>% 
  add_epred_draws(melsm.3, re_formula = NA, dpar = T) %>% 
  ungroup() %>% 
  select(day01, .epred, sigma)

# A tibble: 160,000 × 3
   day01   .epred sigma
   <dbl>    <dbl> <dbl>
 1     0  0.00437 0.475
 2     0  0.0347  0.467
 3     0  0.0248  0.444
 4     0 -0.0167  0.455
 5     0 -0.0114  0.446
 6     0  0.0162  0.462
 7     0  0.0423  0.507
 8     0  0.0585  0.564
 9     0  0.0641  0.510
10     0  0.0519  0.463
# ℹ 159,990 more rows
…
Lets look at random effects. Remember we fit a random effect for both the intercept and the slope (time)

Code

melsm.3 %>% 
spread_draws(r_record_id__sigma[ID, term]) %>% 
  mutate(r_record_id__sigma = exp(r_record_id__sigma)) 

# A tibble: 3,088,000 × 6
# Groups:   ID, term [386]
      ID term  r_record_id__sigma .chain .iteration .draw
   <int> <chr>              <dbl>  <int>      <int> <int>
 1     1 day01              1.28       1          1     1
 2     1 day01              1.09       1          2     2
 3     1 day01              1.53       1          3     3
 4     1 day01              0.822      1          4     4
 5     1 day01              0.785      1          5     5
 6     1 day01              1.06       1          6     6
 7     1 day01              1.62       1          7     7
 8     1 day01              0.933      1          8     8
 9     1 day01              1.42       1          9     9
10     1 day01              1.12       1         10    10
# ℹ 3,087,990 more rows

193 * 8000 *2

Code

melsm.3 %>% 
spread_draws(r_record_id__sigma[ID, term]) %>% 
  mutate(r_record_id__sigma = exp(r_record_id__sigma)) %>% 
   median_qi(estimate = r_record_id__sigma) 

# A tibble: 386 × 8
      ID term      estimate .lower .upper .width .point .interval
   <int> <chr>        <dbl>  <dbl>  <dbl>  <dbl> <chr>  <chr>    
 1     1 Intercept    1.40   1.08   1.84    0.95 median qi       
 2     1 day01        1.20   0.811  1.79    0.95 median qi       
 3     2 Intercept    0.237  0.178  0.322   0.95 median qi       
 4     2 day01        1.56   1.05   2.35    0.95 median qi       
 5     3 Intercept    1.32   1.02   1.73    0.95 median qi       
 6     3 day01        0.831  0.565  1.23    0.95 median qi       
 7     4 Intercept    1.90   1.45   2.52    0.95 median qi       
 8     4 day01        0.978  0.639  1.53    0.95 median qi       
 9     5 Intercept    0.431  0.301  0.664   0.95 median qi       
10     5 day01        1.14   0.622  2.09    0.95 median qi       
# ℹ 376 more rows
…
Code

imp.2 %>% 
  spread_draws(Ymi_chl[ID]) 

# A tibble: 40,000 × 5
# Groups:   ID [10]
      ID Ymi_chl .chain .iteration .draw
   <int>   <dbl>  <int>      <int> <int>
 1     1   158.       1          1     1
 2     1   145.       1          2     2
 3     1    93.1      1          3     3
 4     1   181.       1          4     4
 5     1   131.       1          5     5
 6     1    93.7      1          6     6
 7     1   137.       1          7     7
 8     1   143.       1          8     8
 9     1   177.       1          9     9
10     1   198.       1         10    10
# ℹ 39,990 more rows
…
