Bayesian Statistics 2023 - glm
…
Example

Code

library(readr)
mortality <- read_csv("https://raw.githubusercontent.com/josh-jackson/bayes/master/static/Lectures/mortality.csv")

mortality <- mortality %>% 
  mutate(IQ_c = IQ - mean(IQ))
mortality

# A tibble: 300 × 6
    ...1 Risky.behavior premature.d NOT.premature    IQ   IQ_c
   <dbl>          <dbl> <chr>               <dbl> <dbl>  <dbl>
 1     1             19 normal                  1    22  5.43 
 2     2             18 normal                  1    22  5.43 
 3     3             21 normal                  1    21  4.43 
 4     4             17 normal                  1    22  5.43 
 5     5             18 normal                  1    19  2.43 
 6     6             22 premature               0    19  2.43 
 7     7             18 normal                  1    16 -0.573
 8     8             11 premature               0    15 -1.57 
 9     9             21 normal                  1    16 -0.573
10    10             20 normal                  1    19  2.43 
# ℹ 290 more rows
…
career <- rep(NA, n)  # empty vector of choices for each individual
for (i in 1:n) {
    score     <- 0.5 * (1:3) + b * family_income[i]
    p         <- softmax(score[1], score[2], score[3])
    career[i] <- sample(1:3, size = 1, prob = p)
}

d <-
  tibble(career = career) %>% 
  mutate(family_income = family_income)
d

# A tibble: 500 × 2
   career family_income
    <int>         <dbl>
 1      3        0.354 
 2      3        0.366 
 3      3        0.287 
 4      1        0.0800
 5      2        0.365 
 6      3        0.178 
 7      3        0.536 
 8      3        0.504 
 9      3        0.945 
10      3        0.341 
# ℹ 490 more rows
…
