Bayesian Statistics 2023 - Intro to Bayes
…
Our posterior is literally made up of educated guesses by the algorithm

tidy_draws(fit.1.bayesian)

# A tibble: 4,000 × 14
   .chain .iteration .draw b_Intercept b_parent sigma lprior   lp__
    <int>      <int> <int>       <dbl>    <dbl> <dbl>  <dbl>  <dbl>
 1      1          1     1        27.1    0.598  2.34  -3.88 -2071.
 2      1          2     2        25.9    0.617  2.12  -3.81 -2070.
 3      1          3     3        25.8    0.620  2.15  -3.82 -2068.
 4      1          4     4        20.2    0.702  2.30  -3.86 -2068.
 5      1          5     5        24.2    0.641  2.16  -3.83 -2068.
 6      1          6     6        23.3    0.655  2.16  -3.83 -2068.
 7      1          7     7        24.4    0.642  2.18  -3.83 -2069.
 8      1          8     8        25.8    0.620  2.20  -3.84 -2067.
 9      1          9     9        25.4    0.625  2.20  -3.84 -2067.
10      1         10    10        23.1    0.660  2.23  -3.84 -2067.
# ℹ 3,990 more rows
# ℹ 6 more variables: accept_stat__ <dbl>, treedepth__ <dbl>, stepsize__ <dbl>,
#   divergent__ <dbl>, n_leapfrog__ <dbl>, energy__ <dbl>
…
