Bayesian Statistics 2023 - mlm
…
mlm.1 %>%
  spread_draws(r_ID[ID, term]) 

# A tibble: 1,456,000 × 6
# Groups:   ID, term [91]
      ID term          r_ID .chain .iteration .draw
   <int> <chr>        <dbl>  <int>      <int> <int>
 1     6 Intercept  0.00486      1          1     1
 2     6 Intercept  0.00189      1          2     2
 3     6 Intercept  0.0203       1          3     3
 4     6 Intercept -0.0463       1          4     4
 5     6 Intercept  0.0358       1          5     5
 6     6 Intercept -0.0305       1          6     6
 7     6 Intercept  0.0108       1          7     7
 8     6 Intercept  0.00562      1          8     8
 9     6 Intercept  0.00230      1          9     9
10     6 Intercept  0.0235       1         10    10
# ℹ 1,455,990 more rows

16000 samples (4 chains * 4k iterations) * 91 people

mlm.1 %>%
  spread_draws(r_ID[ID]) 

# A tibble: 1,456,000 × 5
# Groups:   ID [91]
      ID     r_ID .chain .iteration .draw
   <int>    <dbl>  <int>      <int> <int>
 1     6  0.00486      1          1     1
 2     6  0.00189      1          2     2
 3     6  0.0203       1          3     3
 4     6 -0.0463       1          4     4
 5     6  0.0358       1          5     5
 6     6 -0.0305       1          6     6
 7     6  0.0108       1          7     7
 8     6  0.00562      1          8     8
 9     6  0.00230      1          9     9
10     6  0.0235       1         10    10
# ℹ 1,455,990 more rows

mlm.1 %>%
  spread_draws(r_ID[ID, term]) %>%
 median_qi()

# A tibble: 91 × 8
      ID term           r_ID   .lower   .upper .width .point .interval
   <int> <chr>         <dbl>    <dbl>    <dbl>  <dbl> <chr>  <chr>    
 1     6 Intercept  0.000127 -0.0495   0.0492    0.95 median qi       
 2    29 Intercept -0.0482   -0.106    0.00947   0.95 median qi       
 3    34 Intercept -0.0614   -0.120   -0.00548   0.95 median qi       
 4    36 Intercept -0.0225   -0.0795   0.0348    0.95 median qi       
 5    37 Intercept -0.00341  -0.0522   0.0459    0.95 median qi       
 6    48 Intercept  0.0234   -0.0255   0.0728    0.95 median qi       
 7    53 Intercept  0.000252 -0.0556   0.0569    0.95 median qi       
 8    54 Intercept  0.0452   -0.00413  0.0937    0.95 median qi       
 9    58 Intercept  0.0370   -0.0125   0.0867    0.95 median qi       
10    61 Intercept -0.0743   -0.131   -0.0168    0.95 median qi       
# ℹ 81 more rows
…
Think back to {lme4} and ranef coef and fixef functions.

What do each of these describe?

What scale is our random effect (typically) in?

mlm.1 %>%
  spread_draws(b_Intercept, r_ID[ID, term]) 

# A tibble: 1,456,000 × 7
# Groups:   ID, term [91]
   .chain .iteration .draw b_Intercept    ID term          r_ID
    <int>      <int> <int>       <dbl> <int> <chr>        <dbl>
 1      1          1     1       0.201     6 Intercept  0.00486
 2      1          1     1       0.201    29 Intercept -0.0310 
 3      1          1     1       0.201    34 Intercept -0.124  
 4      1          1     1       0.201    36 Intercept -0.105  
 5      1          1     1       0.201    37 Intercept -0.0349 
 6      1          1     1       0.201    48 Intercept  0.0250 
 7      1          1     1       0.201    53 Intercept -0.0462 
 8      1          1     1       0.201    54 Intercept  0.0262 
 9      1          1     1       0.201    58 Intercept -0.0356 
10      1          1     1       0.201    61 Intercept -0.0765 
# ℹ 1,455,990 more rows

mlm.1 %>%
  spread_draws(b_Intercept, r_ID[ID, term]) %>% 
   mutate(person_I = b_Intercept + r_ID) 

# A tibble: 1,456,000 × 8
# Groups:   ID, term [91]
   .chain .iteration .draw b_Intercept    ID term          r_ID person_I
    <int>      <int> <int>       <dbl> <int> <chr>        <dbl>    <dbl>
 1      1          1     1       0.201     6 Intercept  0.00486   0.206 
 2      1          1     1       0.201    29 Intercept -0.0310    0.170 
 3      1          1     1       0.201    34 Intercept -0.124     0.0769
 4      1          1     1       0.201    36 Intercept -0.105     0.0961
 5      1          1     1       0.201    37 Intercept -0.0349    0.166 
 6      1          1     1       0.201    48 Intercept  0.0250    0.226 
 7      1          1     1       0.201    53 Intercept -0.0462    0.155 
 8      1          1     1       0.201    54 Intercept  0.0262    0.227 
 9      1          1     1       0.201    58 Intercept -0.0356    0.165 
10      1          1     1       0.201    61 Intercept -0.0765    0.124 
# ℹ 1,455,990 more rows
…
mlm.4 %>%
  spread_draws(r_ID[ID,term]) 

# A tibble: 2,184,000 × 6
# Groups:   ID, term [182]
      ID term         r_ID .chain .iteration .draw
   <int> <chr>       <dbl>  <int>      <int> <int>
 1     6 Intercept -0.0305      1          1     1
 2     6 Intercept  0.0222      1          2     2
 3     6 Intercept  0.0429      1          3     3
 4     6 Intercept  0.0735      1          4     4
 5     6 Intercept  0.0423      1          5     5
 6     6 Intercept -0.0271      1          6     6
 7     6 Intercept  0.0114      1          7     7
 8     6 Intercept  0.0146      1          8     8
 9     6 Intercept  0.0356      1          9     9
10     6 Intercept -0.0478      1         10    10
# ℹ 2,183,990 more rows

mlm.4 %>%
  spread_draws(b_time, r_ID[ID, term]) %>%
  filter(term == "time") %>% 
  mutate(person_t = b_time + r_ID) %>% 
 median_qi()

# A tibble: 91 × 14
# Groups:   ID [91]
      ID term    b_time b_time.lower b_time.upper     r_ID r_ID.lower r_ID.upper
   <int> <chr>    <dbl>        <dbl>        <dbl>    <dbl>      <dbl>      <dbl>
 1     6 time  -0.00285     -0.00733      0.00148  2.26e-5   -0.00993    0.0104 
 2    29 time  -0.00285     -0.00733      0.00148 -3.77e-4   -0.0135     0.00798
 3    34 time  -0.00285     -0.00733      0.00148 -6.00e-4   -0.0150     0.00669
 4    36 time  -0.00285     -0.00733      0.00148  1.38e-4   -0.00916    0.0130 
 5    37 time  -0.00285     -0.00733      0.00148 -2.17e-4   -0.0123     0.00748
 6    48 time  -0.00285     -0.00733      0.00148 -2.82e-5   -0.0108     0.00890
 7    53 time  -0.00285     -0.00733      0.00148 -2.33e-4   -0.0128     0.00789
 8    54 time  -0.00285     -0.00733      0.00148  2.22e-4   -0.00844    0.0112 
 9    58 time  -0.00285     -0.00733      0.00148  5.06e-4   -0.00714    0.0159 
10    61 time  -0.00285     -0.00733      0.00148 -5.52e-5   -0.0103     0.0104 
# ℹ 81 more rows
# ℹ 6 more variables: person_t <dbl>, person_t.lower <dbl>,
#   person_t.upper <dbl>, .width <dbl>, .point <chr>, .interval <chr>
…
New names:
Rows: 11540 Columns: 89
── Column specification
──────────────────────────────────────────────────────── Delimiter: "," chr
(3): esm.startDateTime.w1, esm.endDateTime.w1, esm.OR.w1 dbl (84): ...1,
esm.IDnum.w1, esm.PRO01.w1, esm.PRO02.w1, esm.PRO03.w1, esm.... lgl (2):
esm.ST14.w1, esm.ST15.w1
ℹ Use `spec()` to retrieve the full column specification for this data. ℹ
Specify the column types or set `show_col_types = FALSE` to quiet this message.
• `` -> `...1`

esm

# A tibble: 11,540 × 89
    ...1 esm.IDnum.w1 esm.PRO01.w1 esm.PRO02.w1 esm.PRO03.w1
   <dbl>        <dbl>        <dbl>        <dbl>        <dbl>
 1     1        10549           17            1            1
 2     2        10547           57            1            1
 3     3        10547           57            1            1
 4     4        10539           51            1            1
 5     5        10547           57            1            1
 6     6        10549           17            1            1
 7     7        10539           51            1            1
 8     8        10549           17            1            1
 9     9        10547           57            1            1
10    10        10526           36            1            1
# ℹ 11,530 more rows
# ℹ 84 more variables: esm.startDateTime.w1 <chr>, esm.PRO04.w1 <dbl>,
#   esm.PRO05.w1 <dbl>, esm.PRO06.w1 <dbl>, esm.PRO07.w1 <dbl>,
#   esm.endDateTime.w1 <chr>, esm.OR.w1 <chr>, esm.NQ11.w1 <dbl>,
#   esm.NQ12.w1 <dbl>, esm.EXT.w1 <dbl>, esm.AGR.w1 <dbl>, esm.CON.w1 <dbl>,
#   esm.NEU.w1 <dbl>, `esm.NQ11+1.w1` <dbl>, `esm.NQ12+1.w1` <dbl>,
#   `esm.EXT+1.w1` <dbl>, `esm.AGR+1.w1` <dbl>, `esm.CON+1.w1` <dbl>, …
…
Don’t need to even attempt a random sample. All we need is a sample that is large and diverse enough + population data (e.g., from the census).

Estimating the proportion of heterosexual women who kept their maiden name after marriage.

https://www.monicaalexander.com/posts/2019-08-07-mrp/ https://bookdown.org/content/4857/models-with-memory.html#summary-bonus-post-stratification-in-an-example

mrp <-load("mrp.rds")
mrp

[1] "d"           "cell_counts"

d

# A tibble: 4,413 × 5
   kept_name state_name     age_group decade_married educ_group
       <dbl> <chr>          <chr>     <chr>          <chr>     
 1         0 ohio           50        1979           >BA       
 2         0 virginia       35        1999           >BA       
 3         1 new york       35        2009           >BA       
 4         0 rhode island   55        1999           >BA       
 5         0 illinois       35        2009           >BA       
 6         0 north carolina 25        2009           >BA       
 7         1 iowa           35        1999           >BA       
 8         1 texas          35        2009           >BA       
 9         0 south dakota   35        1999           >BA       
10         0 texas          35        2009           >BA       
# ℹ 4,403 more rows

cell_counts

# A tibble: 6,058 × 5
   state_name age_group decade_married educ_group     n
   <chr>      <chr>     <chr>          <chr>      <dbl>
 1 alabama    25        1999           <BA        19012
 2 alabama    25        2009           <BA        37488
 3 alabama    25        1999           >BA          959
 4 alabama    25        2009           >BA         5319
 5 alabama    25        1999           BA          2986
 6 alabama    25        2009           BA         14261
 7 alaska     25        1999           <BA         3320
 8 alaska     25        2009           <BA         7001
 9 alaska     25        1999           >BA          159
10 alaska     25        2009           >BA          435
# ℹ 6,048 more rows
…
Census data we will use to make predictions. We will make predictions for every combination of variable we are interested in (state, age, decade married, edu)

Code

age_prop <- 
  cell_counts %>% 
  group_by(age_group) %>% 
  mutate(prop = n / sum(n)) %>% 
  ungroup()

age_prop

# A tibble: 6,058 × 6
   state_name age_group decade_married educ_group     n      prop
   <chr>      <chr>     <chr>          <chr>      <dbl>     <dbl>
 1 alabama    25        1999           <BA        19012 0.00414  
 2 alabama    25        2009           <BA        37488 0.00816  
 3 alabama    25        1999           >BA          959 0.000209 
 4 alabama    25        2009           >BA         5319 0.00116  
 5 alabama    25        1999           BA          2986 0.000650 
 6 alabama    25        2009           BA         14261 0.00310  
 7 alaska     25        1999           <BA         3320 0.000723 
 8 alaska     25        2009           <BA         7001 0.00152  
 9 alaska     25        1999           >BA          159 0.0000346
10 alaska     25        2009           >BA          435 0.0000947
# ℹ 6,048 more rows

p <- mlm.mrp %>% 
  add_predicted_draws(newdata = age_prop %>% 
                        filter(age_group > 20, 
                               age_group < 80, 
                               decade_married > 1969),
                      allow_new_levels = T)
p

# A tibble: 24,232,000 × 11
# Groups:   state_name, age_group, decade_married, educ_group, n, prop, .row
#   [6,058]
   state_name age_group decade_married educ_group     n    prop  .row .chain
   <chr>      <chr>     <chr>          <chr>      <dbl>   <dbl> <int>  <int>
 1 alabama    25        1999           <BA        19012 0.00414     1     NA
 2 alabama    25        1999           <BA        19012 0.00414     1     NA
 3 alabama    25        1999           <BA        19012 0.00414     1     NA
 4 alabama    25        1999           <BA        19012 0.00414     1     NA
 5 alabama    25        1999           <BA        19012 0.00414     1     NA
 6 alabama    25        1999           <BA        19012 0.00414     1     NA
 7 alabama    25        1999           <BA        19012 0.00414     1     NA
 8 alabama    25        1999           <BA        19012 0.00414     1     NA
 9 alabama    25        1999           <BA        19012 0.00414     1     NA
10 alabama    25        1999           <BA        19012 0.00414     1     NA
# ℹ 24,231,990 more rows
# ℹ 3 more variables: .iteration <int>, .draw <int>, .prediction <int>
…
