Bayesian Statistics 2023 - Intro to Regression
…
{tidybayes}

{tidybayes} is a helpful package to work with your posterior. It consists of a number of helper functions to put your posterior in a format to neatly graph and or compute values. Once we get to more complicated models this will be invaluable.

Please take a look at the overview and download the package http://mjskay.github.io/tidybayes/articles/tidy-brms.html

{marginaleffects} and {bayestestR} from easystats are two other packages we will routinely use

posterior samples/draws

1k rows indicate 1k parameter samples (we told the algo to give us 1k). All of these parameters represent possible states of the world given our data. Parameters more consistent with the data will appear more often.

tidy_draws(fit.1)

# A tibble: 1,000 × 14
   .chain .iteration .draw b_Intercept b_parent.c sigma lprior   lp__
    <int>      <int> <int>       <dbl>      <dbl> <dbl>  <dbl>  <dbl>
 1      1          1     1        67.9      0.620  2.20  -7.28 -2072.
 2      1          2     2        68.0      0.654  2.25  -7.32 -2071.
 3      1          3     3        68.0      0.661  2.24  -7.32 -2071.
 4      1          4     4        68.1      0.628  2.26  -7.33 -2070.
 5      1          5     5        68.1      0.671  2.20  -7.28 -2071.
 6      1          6     6        68.1      0.619  2.23  -7.31 -2070.
 7      1          7     7        68.0      0.689  2.22  -7.30 -2072.
 8      1          8     8        68.0      0.604  2.21  -7.28 -2072.
 9      1          9     9        68.1      0.732  2.28  -7.34 -2073.
10      1         10    10        68.2      0.613  2.27  -7.33 -2072.
# ℹ 990 more rows
# ℹ 6 more variables: accept_stat__ <dbl>, treedepth__ <dbl>, stepsize__ <dbl>,
#   divergent__ <dbl>, n_leapfrog__ <dbl>, energy__ <dbl>

spread_draws

Instead of looking at all of our “draws” or samples for all variables we often want to look at just some of them. Spread draws is an oft used function similar to select in {dplyr}

fit.1 %>% 
spread_draws(b_Intercept, b_parent.c)

# A tibble: 1,000 × 5
   .chain .iteration .draw b_Intercept b_parent.c
    <int>      <int> <int>       <dbl>      <dbl>
 1      1          1     1        67.9      0.620
 2      1          2     2        68.0      0.654
 3      1          3     3        68.0      0.661
 4      1          4     4        68.1      0.628
 5      1          5     5        68.1      0.671
 6      1          6     6        68.1      0.619
 7      1          7     7        68.0      0.689
 8      1          8     8        68.0      0.604
 9      1          9     9        68.1      0.732
10      1         10    10        68.2      0.613
# ℹ 990 more rows
…
Predicted/fitted values

Much like in regular regression, we may be interested in the fitted/expected/predicted/marginal values (Y-hats) at certain values of X. We use them a lot for graphing, to calculate residuals, and other fit metrics.

Code

library(broom)
augment(lm(child ~ parent, galton.data))

# A tibble: 928 × 8
   child parent .fitted .resid    .hat .sigma .cooksd .std.resid
   <dbl>  <dbl>   <dbl>  <dbl>   <dbl>  <dbl>   <dbl>      <dbl>
 1  61.7   70.5    69.5  -7.81 0.00270   2.22 0.0165       -3.49
 2  61.7   68.5    68.2  -6.51 0.00109   2.23 0.00462      -2.91
 3  61.7   65.5    66.3  -4.57 0.00374   2.23 0.00787      -2.05
 4  61.7   64.5    65.6  -3.93 0.00597   2.24 0.00931      -1.76
 5  61.7   64      65.3  -3.60 0.00735   2.24 0.00966      -1.62
 6  62.2   67.5    67.6  -5.37 0.00130   2.23 0.00374      -2.40
 7  62.2   67.5    67.6  -5.37 0.00130   2.23 0.00374      -2.40
 8  62.2   67.5    67.6  -5.37 0.00130   2.23 0.00374      -2.40
 9  62.2   66.5    66.9  -4.72 0.00218   2.23 0.00487      -2.11
10  62.2   66.5    66.9  -4.72 0.00218   2.23 0.00487      -2.11
# ℹ 918 more rows
…
Predicted/fitted values

If we examine a expected/predicted mean at a certain value across all of our samples we directly compute our uncertainty. In contrast to frequentist where we have to use an ugly equation, which has big assumptions.

Code

fit.1 %>% 
  spread_draws(b_Intercept,b_parent.c) %>% 
  select(b_Intercept,b_parent.c) %>% 
  mutate(mu_at_64 = b_Intercept + (b_parent.c * -4.3))

# A tibble: 1,000 × 3
   b_Intercept b_parent.c mu_at_64
         <dbl>      <dbl>    <dbl>
 1        67.9      0.620     65.3
 2        68.0      0.654     65.2
 3        68.0      0.661     65.1
 4        68.1      0.628     65.4
 5        68.1      0.671     65.2
 6        68.1      0.619     65.5
 7        68.0      0.689     65.0
 8        68.0      0.604     65.4
 9        68.1      0.732     65.0
10        68.2      0.613     65.6
# ℹ 990 more rows
…
Feed reference grid to tidybayes

The second step after you have the data/reference grid is to feed it into the model. You may have done something similar using the ‘predict’ functions of base R or {lme4}. We will use the functions from {marginaleffects} or {tidybayes}, both of which operate similarly. {brms} also has a predict function, but its not as user friendly

Notice how the predicted values are “.epred”

Notice the number of rows. Where did it come from?

Code

galton.data %>% 
data_grid(parent.c = seq_range(parent.c, n = 10)) %>% 
 add_epred_draws(fit.1)

# A tibble: 10,000 × 6
# Groups:   parent.c, .row [10]
   parent.c  .row .chain .iteration .draw .epred
      <dbl> <int>  <int>      <int> <int>  <dbl>
 1    -4.31     1     NA         NA     1   65.3
 2    -4.31     1     NA         NA     2   65.2
 3    -4.31     1     NA         NA     3   65.1
 4    -4.31     1     NA         NA     4   65.4
 5    -4.31     1     NA         NA     5   65.2
 6    -4.31     1     NA         NA     6   65.5
 7    -4.31     1     NA         NA     7   65.0
 8    -4.31     1     NA         NA     8   65.4
 9    -4.31     1     NA         NA     9   65.0
10    -4.31     1     NA         NA    10   65.6
# ℹ 9,990 more rows
…
predicted values

Each .prediction is feeding in a parent.c value we prespecified into our model \(\hat{Y}_i = \beta_0 + \beta_1 X + \epsilon_i\). Each row of the posterior has different estimates for each of the three parameters. With epred we were only including 2 parameters.

Code

galton.data %>% 
data_grid(parent.c = seq_range(parent.c, n = 10)) %>% 
  add_predicted_draws(fit.1)

# A tibble: 10,000 × 6
# Groups:   parent.c, .row [10]
   parent.c  .row .chain .iteration .draw .prediction
      <dbl> <int>  <int>      <int> <int>       <dbl>
 1    -4.31     1     NA         NA     1        64.2
 2    -4.31     1     NA         NA     2        62.9
 3    -4.31     1     NA         NA     3        64.9
 4    -4.31     1     NA         NA     4        68.0
 5    -4.31     1     NA         NA     5        63.8
 6    -4.31     1     NA         NA     6        63.9
 7    -4.31     1     NA         NA     7        67.0
 8    -4.31     1     NA         NA     8        68.1
 9    -4.31     1     NA         NA     9        66.4
10    -4.31     1     NA         NA    10        64.3
# ℹ 9,990 more rows
…
