Bayesian Statistics 2023 - Regression
…
With enough data, priors do not really matter

With simple models, we can envision what priors make sense. With more complex, prior predictives will be very helpful

Unless you have previous studies or population level statistics, it is helpful to have weakly informative priors centered around zero. These constrain the model to plausible values, but do not overly influence outcomes

The posterior is made of samples

Code

library(tidybayes)
h.1 %>% 
spread_draws(b_Intercept, b_happy_c, sigma)

# A tibble: 1,000 × 6
   .chain .iteration .draw b_Intercept b_happy_c sigma
    <int>      <int> <int>       <dbl>     <dbl> <dbl>
 1      1          1     1        8.43     0.401  2.70
 2      1          2     2        8.61     0.367  2.86
 3      1          3     3        8.28     0.317  3.06
 4      1          4     4        8.39     0.274  3.15
 5      1          5     5        8.20     0.605  3.04
 6      1          6     6        8.71     0.188  3.10
 7      1          7     7        8.04     0.351  2.68
 8      1          8     8        8.68     0.310  2.99
 9      1          9     9        8.71     0.347  3.00
10      1         10    10        8.78     0.213  2.83
# ℹ 990 more rows

h.1 %>% 
gather_draws(b_Intercept, b_happy_c, sigma)

# A tibble: 3,000 × 5
# Groups:   .variable [3]
   .chain .iteration .draw .variable   .value
    <int>      <int> <int> <chr>        <dbl>
 1      1          1     1 b_Intercept   8.43
 2      1          2     2 b_Intercept   8.61
 3      1          3     3 b_Intercept   8.28
 4      1          4     4 b_Intercept   8.39
 5      1          5     5 b_Intercept   8.20
 6      1          6     6 b_Intercept   8.71
 7      1          7     7 b_Intercept   8.04
 8      1          8     8 b_Intercept   8.68
 9      1          9     9 b_Intercept   8.71
10      1         10    10 b_Intercept   8.78
# ℹ 2,990 more rows
…
Code

post.h7 <- h.7 %>% 
  spread_draws(b_mood.group.dcontrol,b_mood.group.dtx, b_sigma_mood.group.dcontrol,b_sigma_mood.group.dtx) %>% 
  transmute(`Control`     = b_mood.group.dcontrol,
            `Tx`  = b_mood.group.dtx,
            `Sigma Control`    = b_sigma_mood.group.dcontrol%>% exp(),
            `Sigma Tx` = b_sigma_mood.group.dtx %>% exp()) %>% 
  mutate(`Differences`  = `Tx` - `Control`,
         `Sigma Difference` = `Sigma Tx` - `Sigma Control`,
         `Effect Size` = (`Differences`) / sqrt((`Sigma Control`^2 + `Sigma Tx`^2) / 2))

post.h7 

# A tibble: 4,000 × 7
   Control    Tx `Sigma Control` `Sigma Tx` Differences `Sigma Difference`
     <dbl> <dbl>           <dbl>      <dbl>       <dbl>              <dbl>
 1    7.99  8.63            2.68       2.48       0.646            -0.196 
 2    7.79  8.85            2.71       2.89       1.06              0.180 
 3    7.94  8.64            2.76       2.59       0.697            -0.168 
 4    8.00  8.89            2.41       3.03       0.888             0.623 
 5    7.84  8.64            2.43       2.84       0.803             0.410 
 6    7.91  8.74            3.10       2.65       0.837            -0.443 
 7    7.82  8.78            3.03       2.94       0.955            -0.0873
 8    7.96  8.83            2.55       2.87       0.868             0.319 
 9    8.33  8.22            2.93       2.82      -0.109            -0.102 
10    8.85  8.62            2.57       2.73      -0.232             0.165 
# ℹ 3,990 more rows
# ℹ 1 more variable: `Effect Size` <dbl>
…
get_variables(a.1)

 [1] "b_iv1"         "b_iv2"         "b_iv3"         "sigma"        
 [5] "prior_b"       "prior_sigma"   "lprior"        "lp__"         
 [9] "accept_stat__" "treedepth__"   "stepsize__"    "divergent__"  
[13] "n_leapfrog__"  "energy__"     

Notice that we have a parameter for each group mean

a.1 %>% 
 gather_draws(b_iv1, b_iv2,b_iv3)

# A tibble: 6,000 × 5
# Groups:   .variable [3]
   .chain .iteration .draw .variable .value
    <int>      <int> <int> <chr>      <dbl>
 1      1          1     1 b_iv1       5.24
 2      1          2     2 b_iv1       4.68
 3      1          3     3 b_iv1       4.90
 4      1          4     4 b_iv1       5.11
 5      1          5     5 b_iv1       5.22
 6      1          6     6 b_iv1       5.20
 7      1          7     7 b_iv1       4.65
 8      1          8     8 b_iv1       4.63
 9      1          9     9 b_iv1       5.12
10      1         10    10 b_iv1       5.15
# ℹ 5,990 more rows
…
Our posterior captures all information in the model. Thus any sort of additional information we may want (eg group comparison) we can get through manipulating our posterior!

post.a.1 <- a.1 %>% 
  spread_draws(b_iv1, b_iv2,b_iv3,sigma) %>% 
  mutate(`D_1-2`  = `b_iv1` - `b_iv2`,
         `D_1-3`  = `b_iv1` - `b_iv3`,
         `D_2-3`  = `b_iv2` - `b_iv3`,
         `E_1-2` = ((`D_1-2`) / `sigma`),
         `E_1-3` = ((`D_1-3`) / `sigma`),
          `E_2-3` = ((`D_2-3`) / `sigma`))

post.a.1 

# A tibble: 2,000 × 13
   .chain .iteration .draw b_iv1 b_iv2 b_iv3 sigma `D_1-2` `D_1-3` `D_2-3`
    <int>      <int> <int> <dbl> <dbl> <dbl> <dbl>   <dbl>   <dbl>   <dbl>
 1      1          1     1  5.24  5.57  6.05  1.87 -0.333   -0.812 -0.479 
 2      1          2     2  4.68  4.95  4.81  1.95 -0.262   -0.126  0.136 
 3      1          3     3  4.90  5.36  6.01  1.77 -0.467   -1.11  -0.648 
 4      1          4     4  5.11  5.34  4.79  1.88 -0.229    0.313  0.542 
 5      1          5     5  5.22  5.31  5.40  1.79 -0.0926  -0.176 -0.0835
 6      1          6     6  5.20  4.99  5.50  1.69  0.208   -0.309 -0.517 
 7      1          7     7  4.65  5.31  5.34  2.03 -0.667   -0.696 -0.0297
 8      1          8     8  4.63  5.69  4.99  2.21 -1.05    -0.356  0.697 
 9      1          9     9  5.12  5.14  4.95  1.88 -0.0195   0.168  0.188 
10      1         10    10  5.15  5.09  5.63  1.88  0.0598  -0.480 -0.540 
# ℹ 1,990 more rows
# ℹ 3 more variables: `E_1-2` <dbl>, `E_1-3` <dbl>, `E_2-3` <dbl>
…
